Data Wrangling: Transforming Data
…
[1] "2022-05-04 20:11:58 UTC"

mdy_hm("04/05/2022 00:01")

[1] "2022-04-05 00:01:00 UTC"

Dates and time: make_datetime()

Some times we can receive the data in separate variables…

library(nycflights13)
flights %>% 
  select(year, month, day, hour, minute)

# A tibble: 336,776 × 5
    year month   day  hour minute
   <int> <int> <int> <dbl>  <dbl>
 1  2013     1     1     5     15
 2  2013     1     1     5     29
 3  2013     1     1     5     40
 4  2013     1     1     5     45
 5  2013     1     1     6      0
 6  2013     1     1     5     58
 7  2013     1     1     6      0
 8  2013     1     1     6      0
 9  2013     1     1     6      0
10  2013     1     1     6      0
# ℹ 336,766 more rows
…
