Modelling
…
Let’s see an example

Degree and Experience affects Salary

Add the predictions

grid <- teacher_sample %>% 
  data_grid(years, degree) %>% 
  add_predictions(mod_reg)

grid

# A tibble: 76 × 3
   years degree   pred
   <dbl> <fct>   <dbl>
 1     0 MA     44838.
 2     0 BA     42278.
 3     1 MA     45656.
 4     1 BA     43096.
 5     2 MA     46474.
 6     2 BA     43914.
 7     3 MA     47292.
 8     3 BA     44732.
 9     4 MA     48110.
10     4 BA     45550.
# ℹ 66 more rows
…
